…
Files can be accessed with [raadfiles]() functions
`rema_8m_rock_files()`, `rema_100m_rock_files()`, and
`rema_200m_rock_files()`.

``` r
files <- raadfiles::rema_8m_rock_files()

base_n <- function(x, n = 5) {
  spl <- fs::path_split(x)
  l <- lengths(spl)
  sprintf(" .. %s", unlist(lapply(seq_along(spl), function(i)  fs::path_join(tail(spl[[i]], l[i] - n)))))
}
dplyr::transmute(files, file = base_n(fullname))
#> # A tibble: 353 x 1
#>    file                                                            
#>    <chr>                                                           
#>  1 " .. aad.gov.au/rema/processing/v1.1/8m/09_38/09_38_8m_rock.tif"
#>  2 " .. aad.gov.au/rema/processing/v1.1/8m/09_39/09_39_8m_rock.tif"
#>  3 " .. aad.gov.au/rema/processing/v1.1/8m/09_41/09_41_8m_rock.tif"
#>  4 " .. aad.gov.au/rema/processing/v1.1/8m/10_34/10_34_8m_rock.tif"
#>  5 " .. aad.gov.au/rema/processing/v1.1/8m/10_35/10_35_8m_rock.tif"
#>  6 " .. aad.gov.au/rema/processing/v1.1/8m/10_36/10_36_8m_rock.tif"
#>  7 " .. aad.gov.au/rema/processing/v1.1/8m/10_37/10_37_8m_rock.tif"
#>  8 " .. aad.gov.au/rema/processing/v1.1/8m/10_38/10_38_8m_rock.tif"
#>  9 " .. aad.gov.au/rema/processing/v1.1/8m/10_39/10_39_8m_rock.tif"
#> 10 " .. aad.gov.au/rema/processing/v1.1/8m/10_40/10_40_8m_rock.tif"
#> # … with 343 more rows
```
…
